osc: Electrochemistry tools
…
At which point we can look at the loaded data and see details about our experiment. Notice the columns sweep and cv. When loading the number of CVs and sweeps in the file are automatically detected. This is useful for subsetting the data later on, or in case you want specific details in plots.

df

## Cyclic Voltammetry at 0.1 V/s
## Initial scan polarity: N, Scan segments: 2
## Init E: 0 V, High E: 0 V, Low E: -2.5 V
## Sensitivity: 1e-05, Quiet time: 2 s
## 
## # A tibble: 5,000 x 6
##    potential    current direc change sweep    cv
##        <dbl>      <dbl> <chr>  <dbl> <dbl> <dbl>
##  1     0.000 -4.901e-09   neg      0     1     1
##  2    -0.001 -1.236e-08   neg      0     1     1
##  3    -0.002 -1.481e-08   neg      0     1     1
##  4    -0.003 -1.547e-08   neg      0     1     1
##  5    -0.004 -1.641e-08   neg      0     1     1
##  6    -0.005 -1.637e-08   neg      0     1     1
##  7    -0.006 -1.700e-08   neg      0     1     1
##  8    -0.007 -1.709e-08   neg      0     1     1
##  9    -0.008 -1.758e-08   neg      0     1     1
## 10    -0.009 -1.775e-08   neg      0     1     1
## # ... with 4,990 more rows
…
