osctools: Tools for the Organic Surface Chemistry group
…
# This chould just as well be the path to your file as a string, i.e. 
# file <- "data/cv_example.txt"
file <- system.file("extdata/cv/cv_example.txt", package = "osctools")

cv1 <- echem_read(file)
cv1

## Cyclic Voltammetry at 0.1 V/s
## Initial scan polarity: N, Scan segments: 2
## Init E: 0 V, High E: 0 V, Low E: -2.5 V
## Sensitivity: 1e-05, Quiet time: 2 s
## 
## # A tibble: 5,000 x 6
##   potential    current direc change sweep    cv
##       <dbl>      <dbl> <chr>  <dbl> <dbl> <dbl>
## 1     0.000 -4.901e-09   neg      0     1     1
## 2    -0.001 -1.236e-08   neg      0     1     1
## 3    -0.002 -1.481e-08   neg      0     1     1
## 4    -0.003 -1.547e-08   neg      0     1     1
## 5    -0.004 -1.641e-08   neg      0     1     1
## # ... with 4,995 more rows
…
