osctools: Tools for the Organic Surface Chemistry group
…
            osctools: Tools for the Organic Surface Chemistry group

5 Interactive analysis tools

5.1 Peak picking

As of osctools v0.0.2 a shinyGadget for peak-picking in any dataset was introduced. There are many algoritms for automatic peak detection in datasets, but they are usually difficult to generalise over e.g. many spectra. The peak_picker() shinyGadget displays a given dataset from a set of x- and y-coordinates and allows you to select peaks by clicking. It will automatically try to determine the nearest peak when selecting a point in the dataset (unless disabled by setting find_nearest = FALSE).

To demonstrate the functionality we have a Raman spectrum of a diazonium salt loaded in a tibble.

library(tidyverse)
print(raman_spectrum, n = 5)

## # A tibble: 1,015 x 2
##   wavenumber int_mean
##        <dbl>    <dbl>
## 1      193.7     40.5
## 2      195.1     41.4
## 3      196.6     34.7
## 4      198.1     34.0
## 5      199.5     31.3
## # ... with 1,010 more rows
…
